<?xml version="1.0" encoding="UTF-8"?>
<svg width="96px" height="97px" viewBox="0 0 96 97" version="1.1" xmlns="http://www.w3.org/2000/svg" xmlns:xlink="http://www.w3.org/1999/xlink">
    <!-- Generator: Sketch 45.2 (43514) - http://www.bohemiancoding.com/sketch -->
    <title>Userpic</title>
    <desc>Created with Sketch.</desc>
    <defs>
        <circle id="path-1" cx="48" cy="48" r="48"></circle>
    </defs>
    <g id="Final-Screens" stroke="none" stroke-width="1" fill="none" fill-rule="evenodd">
        <g id="02-already-have" transform="translate(-132.000000, -81.000000)">
            <g id="Group-2" transform="translate(16.000000, 80.839996)">
                <g id="Info" transform="translate(0.000000, 0.880000)">
                    <g id="Userpic" transform="translate(116.000000, 0.000005)">
                        <mask id="mask-2" fill="white">
                            <use xlink:href="#path-1"></use>
                        </mask>
                        <use id="Mask" fill="#FFFFFF" xlink:href="#path-1"></use>
                        <path d="M48,4.8828125e-06 C21.6,4.8828125e-06 0,21.6000049 0,48.0000049 C0,74.4000049 21.6,96.0000049 48,96.0000049 C74.4,96.0000049 96,74.4000049 96,48.0000049 C96,21.6000049 74.4,4.8828125e-06 48,4.8828125e-06 L48,4.8828125e-06 Z M48,18.4000049 C56.16,18.4000049 62.4,24.6400049 62.4,32.8000049 C62.4,40.9600049 56.16,47.2000049 48,47.2000049 C39.84,47.2000049 33.6,40.9600049 33.6,32.8000049 C33.6,24.6400049 39.84,18.4000049 48,18.4000049 L48,18.4000049 Z M48,81.5600049 C36,81.5600049 25.44,75.3200049 19.2,66.2000049 C19.2,56.6000049 38.4,51.3200049 48,51.3200049 C57.6,51.3200049 76.8,56.6000049 76.8,66.2000049 C70.56,75.3200049 60,81.5600049 48,81.5600049 L48,81.5600049 Z" id="Shape" fill="#FE5457" mask="url(#mask-2)"></path>
                        <path d="M94.7213414,78.7979862 L106.987049,71.2000049 C106.987049,71.2000049 60.4645473,24.3064653 57.3398857,21.699225 C54.8540158,19.6249972 51.6154682,18.4000049 48,18.4000049 C39.84,18.4000049 33.6,24.6400049 33.6,32.8000049 C33.6,36.9440062 35.2093261,40.5928303 37.8621652,43.1806641 C38.5342488,43.836279 42.0505096,47.0107633 46.8779678,51.3423465 C36.9833439,51.7231566 19.2,56.9609546 19.2,66.2000049 C25.44,75.3200049 67.2775773,108.788315 67.2775773,108.788315 L103.801944,86.9374923 C103.801944,86.9374923 99.8071435,83.3591189 94.7213414,78.7979862 Z" id="Combined-Shape" fill="#000000" opacity="0.1" mask="url(#mask-2)"></path>
                        <path d="M19.2,66.2000049 C19.2,56.6000049 38.4,51.3200049 48,51.3200049 C57.6,51.3200049 76.8,56.6000049 76.8,66.2000049 C70.56,75.3200049 60,81.5600049 48,81.5600049 C36,81.5600049 25.44,75.3200049 19.2,66.2000049 Z" id="Path" fill="#EDEDED" mask="url(#mask-2)"></path>
                        <path d="M48,18.4000049 C56.16,18.4000049 62.4,24.6400049 62.4,32.8000049 C62.4,40.9600049 56.16,47.2000049 48,47.2000049 C39.84,47.2000049 33.6,40.9600049 33.6,32.8000049 C33.6,24.6400049 39.84,18.4000049 48,18.4000049 L48,18.4000049 Z" id="Path" fill="#EDEDED" mask="url(#mask-2)"></path>
                    </g>
                </g>
            </g>
        </g>
    </g>
</svg>