<?xml version="1.0" encoding="UTF-8"?>
<svg width="159px" height="197px" viewBox="0 0 159 197" version="1.1" xmlns="http://www.w3.org/2000/svg" xmlns:xlink="http://www.w3.org/1999/xlink">
    <!-- Generator: Sketch 45.2 (43514) - http://www.bohemiancoding.com/sketch -->
    <title>artwork</title>
    <desc>Created with Sketch.</desc>
    <defs>
        <polygon id="path-1" points="0.0966488125 39.4652983 53.6337917 39.4652983 53.6337917 0.135732939 0.0966488125 0.135732939"></polygon>
        <linearGradient x1="50%" y1="0%" x2="50%" y2="100%" id="linearGradient-3">
            <stop stop-color="#FFFFFF" offset="0%"></stop>
            <stop stop-color="#000000" offset="100%"></stop>
        </linearGradient>
        <linearGradient x1="50%" y1="6.99905306%" x2="50%" y2="100%" id="linearGradient-4">
            <stop stop-color="#F9CA54" offset="0%"></stop>
            <stop stop-color="#F0A83E" offset="100%"></stop>
        </linearGradient>
        <path d="M126.98626,65.048422 C124.863046,64.6219358 130.477316,60.5508489 129.553483,55.2435648 C129.535845,55.14172 129.512267,55.0409568 129.48617,54.9405541 C123.243413,54.1564395 118.195897,52.0690724 114.482927,48.7354137 C110.516006,45.1739112 109.36306,41.3270631 109.023799,39.3503733 C108.4961,36.27376 109.240674,33.6622078 110.864986,32.8506943 C111.130095,32.7180257 111.504272,32.5970737 111.970598,32.5970737 C112.81668,32.5970737 113.965667,32.99544 115.314971,34.4456013 L115.314251,34.4403739 L127.027835,31.6905652 L138.627852,28.956619 L138.627492,28.956619 C139.526308,26.0851373 141.060091,25.5849263 141.895914,25.5849263 L141.907073,25.5849263 C143.721983,25.5939391 145.539412,27.6320962 146.42293,30.6257916 C146.990764,32.5489453 147.646788,36.5142218 145.659098,41.4642381 C143.798294,46.0979046 140.190791,50.2036007 134.93648,53.6695674 C134.957177,53.7710517 134.980754,53.8718149 135.009731,53.9707756 C136.521916,59.1408847 143.354105,60.3091253 141.637284,61.6311245 C141.193455,61.7347718 140.143997,61.9795597 138.976832,62.2517466 C139.723565,62.0774389 140.337474,61.9341352 140.647938,61.8618524 C142.36458,60.5400335 135.532211,59.3717929 134.020206,54.2018641 C132.508201,49.031755 142.473647,40.3315079 139.059622,28.898937 L134.289095,30.0114784 C135.45428,36.2290565 133.335925,42.4675442 132.499922,48.7541604 C131.884393,54.0518909 134.163649,59.4469598 138.459212,62.3725183 C136.478181,62.834515 134.367925,63.3266145 134.367925,63.3266145 C134.367925,63.3266145 128.233335,64.7573082 126.98626,65.048422 M111.948101,33.5169213 C111.704229,33.5169213 111.474215,33.5695561 111.2613,33.6759073 C110.023043,34.2943664 109.473747,36.5634318 109.924595,39.1937306 C110.243698,41.0521723 111.339231,44.6733397 115.098096,48.0480967 C118.568094,51.1632848 123.27347,53.1497085 129.090576,53.9576169 C126.584186,49.316019 115.687528,45.5654277 113.871358,34.7733072 L114.226277,34.6909301 C113.402332,33.9174506 112.621763,33.5169213 111.948101,33.5169213 M140.049148,28.6678485 C143.180065,39.1529927 135.059225,47.339149 134.857289,52.6123647 C139.720326,49.3142165 143.065239,45.4498835 144.804017,41.1195881 C146.687139,36.4289606 146.07305,32.6954936 145.539232,30.8875237 C144.78386,28.3280655 143.289673,26.5354173 141.906533,26.5285676 L141.898074,26.5285676 C141.006277,26.5285676 140.234526,27.3137637 139.694229,28.7507664 L140.049148,28.6678485" id="path-5"></path>
    </defs>
    <g id="Misc" stroke="none" stroke-width="1" fill="none" fill-rule="evenodd">
        <g id="bidding-win" transform="translate(-400.000000, -404.000000)">
            <g id="popup" transform="translate(360.000000, 385.000000)">
                <g id="artwork" transform="translate(40.000000, 17.000000)">
                    <polyline id="Fill-3" fill="#F9CA54" points="104.984167 198.217216 41.4515208 198.217216 45.2310833 149.548035 101.564563 149.548035 104.984167 198.217216"></polyline>
                    <polyline id="Fill-4" fill="#D9E0DF" points="41.4515208 198.217216 0.416270833 198.217216 4.01585417 166.672376 43.8995975 166.672376 41.4515208 198.217216"></polyline>
                    <polygon id="Fill-5" fill="#F0A83E" points="104.984167 198.217216 102.771683 166.672376 141.339958 166.672376 146.019417 198.217216"></polygon>
                    <g id="Group-9" transform="translate(63.408979, 158.921359)">
                        <mask id="mask-2" fill="white">
                            <use xlink:href="#path-1"></use>
                        </mask>
                        <g id="Clip-7"></g>
                        <path d="M6.56492008,6.69111114 C6.53810319,6.69111114 0.0966488125,9.6455107 0.0966488125,9.6455107 L1.02246165,4.52983898 L7.78409896,0.135732939 L13.4534427,0.135732939 L16.8280521,29.7873415 L3.06648504,29.7873415 C3.06648504,29.7873415 6.59137702,6.69111114 6.56492008,6.69111114" id="Fill-6" fill="#FFFFFE" mask="url(#mask-2)"></path>
                        <polyline id="Fill-8" fill="#81A6A7" mask="url(#mask-2)" points="53.6337917 39.7958575 53.6337917 39.7958575 41.5751875 39.2958575 53.552801 39.2958575 53.6337917 39.7958575"></polyline>
                    </g>
                    <polyline id="Fill-10" fill="#DB9834" points="116.96178 198.217216 104.984167 198.217216 102.771683 166.672376 116.96178 198.217216"></polyline>
                    <polyline id="Fill-11" fill="#C0C6C4" points="41.4515208 198.217216 38.2118958 198.217216 43.8783599 166.672376 41.4515208 198.217216"></polyline>
                    <g id="Fill-12">
                        <use fill="url(#linearGradient-3)" xlink:href="#path-5"></use>
                        <use fill="url(#linearGradient-4)" xlink:href="#path-5"></use>
                    </g>
                    <path d="M138.459212,62.5867466 L138.459212,62.5867466 C138.633252,62.4742466 138.806212,62.3622466 138.976832,62.2517466 C138.810351,62.3597466 138.637031,62.4717466 138.459212,62.5867466" id="Fill-14" fill="#C1DCD8"></path>
                    <path d="M138.459212,62.3725183 C134.163649,59.4469598 131.884393,54.0518909 132.499922,48.7541604 C133.335925,42.4675442 135.45428,36.2290565 134.289095,30.0114784 L139.059622,28.898937 C142.473647,40.3315079 132.508201,49.031755 134.020206,54.2018641 C135.532211,59.3717929 142.36458,60.5400335 140.647938,61.8618524 C140.337474,61.9341352 139.723565,62.0774389 138.976832,62.2517466 C138.806212,62.2915833 138.633252,62.3319607 138.459212,62.3725183" id="Fill-15" fill="#FFD18D"></path>
                    <path d="M138.110592,16.4439527 C138.201302,16.4964073 138.327827,16.4495407 138.382001,16.3595928 L142.355041,9.76293595 C142.409934,9.67136578 142.383478,9.54825078 142.291868,9.49309237 C142.200259,9.44244037 142.083272,9.46533292 142.027839,9.55636231 L138.050839,16.1605899 C137.995945,16.2523404 138.014843,16.3884338 138.107173,16.4417897 L138.110592,16.4439527" id="Fill-17" fill="#FFFFFE"></path>
                    <path d="M124.706464,14.2044494 C124.748219,14.2284235 124.798793,14.2368955 124.849367,14.2246381 C124.953395,14.1985009 125.016208,14.0932313 124.990651,13.9901247 L123.074233,6.28885769 C123.047956,6.1850301 122.943928,6.12212068 122.84008,6.14771706 C122.736772,6.17367396 122.673779,6.27894359 122.699696,6.38223041 L124.615754,14.0834974 C124.628533,14.1364928 124.662909,14.1790332 124.706464,14.2044494" id="Fill-18" fill="#FFFFFE"></path>
                    <path d="M115.06444,23.1163172 C115.15065,23.166068 115.261877,23.1422741 115.31947,23.058455 C115.380303,22.9706702 115.358166,22.8504393 115.270336,22.7898732 L109.213677,18.599637 C109.127647,18.5378091 109.005801,18.5610621 108.944788,18.6486666 C108.884495,18.7362712 108.906813,18.8570428 108.994282,18.9177892 L115.051121,23.1076649 L115.06444,23.1163172" id="Fill-19" fill="#FFFFFE"></path>
                    <path d="M150.542293,27.0406755 C150.583688,27.0646496 150.634083,27.0734822 150.684477,27.0608642 L158.801537,25.0735393 C158.904125,25.047943 158.968918,24.9435746 158.943721,24.8399273 C158.918524,24.7360997 158.812336,24.672289 158.709748,24.6978854 L150.592687,26.6852103 C150.490099,26.7106264 150.425307,26.815175 150.450504,26.9190026 C150.464902,26.9727189 150.499098,27.0150792 150.542293,27.0406755" id="Fill-20" fill="#FFFFFE"></path>
                    <path d="M147.752076,39.0769246 L147.772234,39.0870189 L156.028058,42.6726758 C156.125247,42.7152163 156.238634,42.670693 156.281829,42.5722731 C156.323224,42.4738532 156.276429,42.3593905 156.18104,42.3177513 L147.926116,38.7320944 C147.828207,38.689554 147.71446,38.7344378 147.671985,38.8326774 C147.63293,38.9235265 147.668386,39.0284357 147.752076,39.0769246" id="Fill-21" fill="#FFFFFE"></path>
                    <path d="M55.9137468,120.79266 L72.5879167,123.221973 L72.5879167,81.1177239 C66.5458361,81.0113727 55.3099167,76.9772383 55.3099167,76.9772383 L55.9137468,120.79266 Z" id="Fill-22" fill="#FE5457"></path>
                    <path d="M90.3628391,120.962642 L91.2751535,77.3381113 C91.2751535,77.3381113 79.3799705,81.1204277 72.8276489,81.1204277 C72.748998,81.1204277 72.6685473,81.1191659 72.5879167,81.1177239 L72.5879167,123.221973 L73.0596421,123.290651 L90.3628391,120.962642" id="Fill-23" fill="#A8484A"></path>
                    <path d="M90.9069162,83.0057276 C90.7116388,83.1571428 90.6054511,83.2333912 90.6054511,83.2333912 L90.6653841,90.4045247 C90.6601647,90.4157006 91.2402376,89.9418069 92.1514721,89.1589541 C92.2569399,89.0682853 92.368347,88.9722087 92.4824538,88.8734283 C91.8390283,86.9585664 91.3550643,84.9739453 90.9393124,82.9803115 L90.9069162,83.0057276" id="Fill-24" fill="#A8484A"></path>
                    <path d="M97.4002045,76.6450261 C94.4192096,80.15822 91.832549,82.2859645 90.9393124,82.9803115 C91.3550643,84.9739453 91.8390283,86.9585664 92.4824538,88.8734283 C94.7966259,86.8713224 98.7808247,83.2734081 101.166989,80.3419011 C100.003243,78.8780402 98.7606671,77.5463072 97.4002045,76.6450261 Z" id="Fill-25" fill="#FE5457"></path>
                    <path d="M117.91045,47.2479393 L117.908291,47.2472183 C116.581124,46.6352484 115.008826,47.216034 114.396537,48.5450632 C114.381959,48.5762475 113.929311,49.5528757 113.117425,51.1822118 L113.116165,51.1814907 C111.368028,54.6743156 107.744687,61.6587037 103.214252,68.5401654 C101.188766,71.865352 99.184518,74.5417964 97.4002045,76.6450261 C98.7606671,77.5463072 100.003243,78.8780402 101.166989,80.3419011 C103.289483,77.7348552 105.453192,74.7561211 107.658837,71.4026343 C112.414247,64.171836 116.167712,56.9424797 117.91729,53.4348738 L117.918549,53.4354146 C118.699839,51.8628593 119.148707,50.89254 119.2063,50.7678027 C119.81859,49.4375117 119.238877,47.8618921 117.91045,47.2479393" id="Fill-26" fill="#F2DBAF"></path>
                    <path d="M55.4645188,83.2481722 C55.4645188,83.2481722 52.9732471,81.5425878 49.5435641,77.619311 C48.1287479,78.6588487 46.5893861,79.5485934 45.2334231,80.6847484 C48.0553164,84.1530585 50.8043182,86.9623518 53.4827682,89.1218214 C54.0261253,87.1182734 54.6691908,85.1954802 55.4655986,83.3545234 L55.4645188,83.2481722" id="Fill-27" fill="#FE5457"></path>
                    <path d="M55.4655986,83.3545234 C54.6691908,85.1954802 54.0261253,87.1182734 53.4827682,89.1218214 C54.149771,89.6597059 54.8126342,90.1588354 55.470998,90.6159652 C55.4997947,90.5552189 55.4655986,83.3545234 55.4655986,83.3545234" id="Fill-28" fill="#E25255"></path>
                    <path d="M43.2010983,68.9006778 C38.6706627,62.0192161 35.0473221,55.0348281 33.2990045,51.5420032 L33.2979246,51.5425439 C32.4856787,49.9133882 32.0330311,48.9367599 32.0186327,48.9055756 C31.4063436,47.5765464 29.8342256,46.9957609 28.5068792,47.6077308 L28.5047195,47.6084518 C27.1762933,48.2224045 26.5967603,49.7980242 27.2090495,51.1283151 C27.2664628,51.2530524 27.7151509,52.2233717 28.4966204,53.795927 L28.4977003,53.7953863 C30.2474578,57.3029922 34.0007433,64.5323484 38.7563328,71.7631467 C40.9567581,75.1088825 43.1156082,78.0818485 45.2334231,80.6847484 C46.5893861,79.5485934 48.1287479,78.6588487 49.5435641,77.619311 C47.6316455,75.432082 45.4290604,72.5586174 43.2010983,68.9006778" id="Fill-29" fill="#F2DBAF"></path>
                    <path d="M52.4626462,146.948019 C54.3103124,146.337131 56.3543358,146.248805 56.3543358,146.248805 L54.7699792,134.650218 L55.9081674,120.51831 L61.3692753,120.605013 L58.2795729,134.122428 L58.9768122,148.078045 C58.9768122,148.897851 58.261395,149.548035 57.4244919,149.548035 L50.763103,149.548035 C49.9267398,149.548035 50.6148001,147.558727 52.4626462,146.948019" id="Fill-30" fill="#2D2E2C"></path>
                    <path d="M93.7541866,146.948019 C91.9065205,146.337131 89.8220017,146.529824 89.8220017,146.529824 L91.0480198,133.673229 L90.3617593,120.601048 L84.8851732,120.605013 L87.6161771,134.133243 L87.2402006,148.078045 C87.2402006,148.897851 87.9556178,149.548035 88.7925209,149.548035 L95.4537299,149.548035 C96.290093,149.548035 95.6020327,147.558727 93.7541866,146.948019" id="Fill-31" fill="#2D2E2C"></path>
                    <path d="M72.8114508,124.011856 C60.2190284,124.256284 55.9137468,120.79266 55.9137468,120.79266 C55.9137468,120.79266 64.5304294,119.669844 73.0765601,119.745732 C81.724739,119.822701 90.3628391,120.962642 90.3628391,120.962642 C90.3628391,120.962642 85.4036932,123.767248 72.8114508,124.011856" id="Fill-32" fill="#2D2E2C"></path>
                    <polyline id="Fill-33" fill="#E25255" points="88.2016493 81.7597965 72.5306833 103.6128 57.976488 81.6339777 88.2016493 81.7597965"></polyline>
                    <polyline id="Fill-34" fill="#2D2E2C" points="77.1170924 97.1929742 74.4584401 88.8126819 75.8226822 86.8610478 69.889849 86.8358119 71.0861705 88.9516595 68.3836033 97.3851273 72.5123254 103.6128 77.1170924 97.1929742"></polyline>
                    <path d="M96.7384211,50.5017445 C93.7626456,45.5492047 91.3239279,40.6563296 92.1853082,33.8914937 C91.538643,35.0541464 90.6450465,36.0792635 89.5766901,36.9841498 C81.9556523,43.4416489 62.6966216,46.4744599 62.6966216,46.4744599 C63.05622,45.4421325 64.1513932,43.0575228 64.8419733,41.5826664 C64.1053186,42.7844347 62.4981046,44.7160604 59.0835399,46.7529557 C57.1403048,47.9123638 54.616277,49.1052995 51.3294974,50.2169397 C51.0544892,47.7953775 51.7970833,44.6317005 51.7970833,44.6317005 C51.7970833,44.6317005 45.0879999,47.4846158 42.8805554,54.1101136 C44.2240999,71.3604543 50.5177914,87.2837486 73.2979345,87.0000253 C92.5765829,86.940721 99.7473129,75.628381 102.524391,60.9187518 C101.632235,58.8110158 100.577377,56.8730811 99.4827435,55.0195063 C103.187075,53.4900322 100.056877,47.1468156 96.7384211,50.5017445" id="Fill-35" fill="#F9D2A1"></path>
                    <path d="M64.8419733,41.5826664 C65.3162184,40.8082856 65.4301452,40.3358341 65.4301452,40.3358341 C65.4301452,40.3358341 65.1860935,40.8465 64.8419733,41.5826664" id="Fill-36" fill="#F9D2A1"></path>
                    <path d="M85.4882834,17.7086304 C77.6240937,8.77405029 52.7158769,13.2409798 45.1495528,26.5474945 C36.7013307,39.1621858 40.8788271,51.7062166 42.3006625,56.6299154 C42.365455,56.1325885 42.4574244,55.654549 42.5695514,55.1914707 C42.659361,54.8203232 42.7639289,54.4601712 42.8805554,54.1101136 C45.0879999,47.4846158 51.7970833,44.6317005 51.7970833,44.6317005 C51.7970833,44.6317005 51.0544892,47.7953775 51.3294974,50.2169397 C54.616277,49.1052995 57.1403048,47.9123638 59.0835399,46.7529557 C62.4981046,44.7160604 64.1053186,42.7844347 64.8419733,41.5826664 C65.1860935,40.8465 65.4301452,40.3358341 65.4301452,40.3358341 C65.4301452,40.3358341 65.3162184,40.8082856 64.8419733,41.5826664 C64.1513932,43.0575228 63.05622,45.4421325 62.6966216,46.4744599 C62.6966216,46.4744599 81.9556523,43.4416489 89.5766901,36.9841498 C90.6450465,36.0792635 91.538643,35.0541464 92.1853082,33.8914937 C91.3239279,40.6563296 93.7626456,45.5492047 96.7384211,50.5017445 C100.056877,47.1468156 103.187075,53.4900322 99.4827435,55.0195063 C100.577377,56.8730811 101.632235,58.8110158 102.524391,60.9187518 C102.588104,61.0689053 102.653076,61.2177969 102.714989,61.3697529 C103.000616,62.0714904 103.268425,62.7910733 103.511937,63.5342697 C108.771108,48.4987373 106.76632,15.6760612 85.4882834,17.7086304" id="Fill-37" fill="#2D2E2C"></path>
                    <g id="Group" transform="translate(89.623526, 12.327347) rotate(-344.000000) translate(-89.623526, -12.327347) translate(80.123526, 2.827347)">
                        <ellipse id="Oval-741" fill="#FE5457" cx="9.07030212" cy="9.08426496" rx="9.07030212" ry="9.08426496"></ellipse>
                        <path d="M15.7391693,7.7083468 C16.0154321,7.22005448 15.8557483,6.58262532 15.3682065,6.30626429 C14.8695619,6.01943752 14.2435622,6.1898329 13.9672994,6.67812522 C13.7129155,7.11343472 13.8193714,7.67727663 14.1906608,7.98503488 C13.3416262,8.70749821 10.7426006,10.9177323 10.7217013,10.9177323 L9.18331587,6.59309106 C9.72441216,6.56103972 10.1384798,6.11526448 10.1384798,5.57333522 C10.1384798,5.00982037 9.68228698,4.54213248 9.09841241,4.54213248 L9.04551102,4.54213248 C8.47306576,4.54213248 8.00609672,5.00982037 8.00609672,5.57300817 C8.00609672,6.11493742 8.41951127,6.56103972 8.96060756,6.59276401 L7.42254869,10.9174053 C7.41177249,10.9174053 4.81307345,8.70717115 3.94313952,7.98470783 C4.33565476,7.67694957 4.44211064,7.11310767 4.18674715,6.67779817 C3.90036124,6.18950584 3.27468804,6.01943752 2.77604348,6.30626429 C2.29862478,6.58229826 2.1183682,7.22005448 2.40475411,7.7083468 C2.68069036,8.17603469 3.26423838,8.35689582 3.76255639,8.11225907 L4.71706723,13.6263974 L13.4373059,13.6263974 L14.3921432,8.11225907 C14.8803381,8.35689582 15.4635596,8.17570764 15.7391693,7.7083468 L15.7391693,7.7083468 Z" id="Shape" fill="#FFFFFF"></path>
                    </g>
                    <path d="M56.4027502,56.5972891 C56.4027502,58.3603752 57.7597931,59.7890861 59.4330594,59.7890861 C61.1063257,59.7890861 62.4631886,58.3603752 62.4631886,56.5972891 C62.4631886,54.8345634 61.1063257,53.4056723 59.4330594,53.4056723 C57.7597931,53.4056723 56.4027502,54.8345634 56.4027502,56.5972891" id="Fill-38" fill="#2D2E2C"></path>
                    <path d="M58.3339266,56.5972891 C58.3339266,57.2386407 58.8274295,57.7581392 59.4359391,57.7581392 C60.0448086,57.7581392 60.5381315,57.2386407 60.5381315,56.5972891 C60.5381315,55.9562979 60.0448086,55.4366192 59.4359391,55.4366192 C58.8274295,55.4366192 58.3339266,55.9562979 58.3339266,56.5972891" id="Fill-39" fill="#FFFFFE"></path>
                    <path d="M84.3589141,56.5972891 C84.3589141,58.3603752 85.7155971,59.7890861 87.3892234,59.7890861 C89.0626696,59.7890861 90.4191726,58.3603752 90.4191726,56.5972891 C90.4191726,54.8345634 89.0626696,53.4056723 87.3892234,53.4056723 C85.7155971,53.4056723 84.3589141,54.8345634 84.3589141,56.5972891" id="Fill-40" fill="#2D2E2C"></path>
                    <path d="M86.2915304,56.5972891 C86.2915304,57.2386407 86.7848533,57.7581392 87.3937228,57.7581392 C88.0020524,57.7581392 88.4955553,57.2386407 88.4955553,56.5972891 C88.4955553,55.9562979 88.0020524,55.4366192 87.3937228,55.4366192 C86.7848533,55.4366192 86.2915304,55.9562979 86.2915304,56.5972891" id="Fill-41" fill="#FFFFFE"></path>
                    <path d="M58.9382967,70.5064003 C58.9382967,78.604231 65.492238,85.2214371 73.5778021,85.2214371 C81.6630062,85.2214371 88.2174875,78.5775531 88.2174875,70.4799026 C88.2174875,70.4247442 88.2142479,70.2352949 88.2135279,70.2352949 L58.9418963,70.2352949 C58.9415363,70.2352949 58.9382967,70.4510616 58.9382967,70.5064003" id="Fill-42" fill="#EC9B9C"></path>
                    <path d="M59.1706498,67.891964 C59.0286462,68.6129889 58.9512552,69.6945263 58.9418963,70.2352949 L88.2135279,70.2352949 C88.204169,69.6945263 88.126598,68.6129889 87.9849544,67.891964 L59.1706498,67.891964" id="Fill-43" fill="#FFFFFE"></path>
                </g>
            </g>
        </g>
    </g>
</svg>